Rotate H5 by 7 18 -30 (X, Y, Z) to center the target. Angleaxis: -7,-30,-18

Rotate H5 by -5 76 10 (X, Y, Z) to get BA image at the position of H5 and no RPY. Angleaxis: -5,-10,76

Rotate BA image at H5 with the following R matrix to center the target
0.468616,-0.628842,-0.620449,0.870533,0.448167,0.203272,0.150239,-0.635378,0.757445
Quaternion: 0.817653,-0.25642,-0.23564,0.458438;

Rotate H1 by -3 -66 4 to make it 1, 0, 0, 0 quaternion orientation
Order better Quaternion: 0.853349, 0.0421911, -0.0280206, -0.518873

Rotate H20:
Quaternion: 0.165866, 0.0634278, 0.0224282, -0.983851

H2: 0.961609, -0.029226, -0.0917098, 0.25699

H3: 0.829408, -0.0667187, -0.0750637, 0.549542

H4: 0.826929, -0.0227147, -0.0561209, 0.559038

H6: 0.0181799, 0.0597368, 0.0212476, -0.997822

H7: 0.117764, 0.0633684, 0.0147716, -0.990908

H8: 0.220273, -0.0759409, -0.0623224, 0.970479

H9: -0.00672315, -0.0700502, -0.0271438, 0.997151

H10: 0.0769573, -0.0808835, -0.0331523, 0.993195

H11: 0.823205, -0.0474314, -0.0580514, 0.562774

H12: 0.749163, -0.0527363, -0.056725, 0.657842

H13: 0.673167, -0.0611874, -0.0524494, 0.735086

H14: 0.679824, -0.0521341, -0.0533122, 0.729575

H15: 0.682307, -0.091377, -0.0286765, 0.724766

H16: 0.612236, -0.105702, 0.00947746, 0.783521 (dont use)

H17: 0.623674, -0.0653686, -0.0622429, 0.776456

H18: 0.867733, -0.0311696, -0.0656384, 0.49169

H19: 0.882558, -0.0283264, -0.0540829, 0.466224

H21: 0.209719, 0.080281, 0.0321393, -0.97393
